{
  "version": 2,
  "alias": ["www.jnygaard.dev"],
  "name": "personal-site-www",
  "routes": [
    {
      "src": "/(.*)",
      "status": 301,
      "headers": { "Location": "https://jnygaard.dev/$1" }
    }
  ]
}
